Library\Bee\artifacts\mvdfrm\Unity.Services.Core.Internal.ref.dll_150789D47024FA93.mvfrm
Library\Bee\artifacts\mvdfrm\Unity.Services.Core.ref.dll_20594DC17355841E.mvfrm
Library\Bee\artifacts\mvdfrm\UnityEditor.UI.ref.dll_5DAE2CC8CF4B8C9E.mvfrm
Library\Bee\artifacts\mvdfrm\UnityEngine.UI.ref.dll_1A140323D56DB509.mvfrm
Library\Bee\artifacts\mvdfrm\UnityEditor.Graphs.dll_FCB19E5974F531A9.mvfrm
Library\Bee\artifacts\mvdfrm\UnityEditor.CoreModule.dll_9F816BD0F801DE77.mvfrm
Library\Bee\artifacts\mvdfrm\UnityEditor.DeviceSimulatorModule.dll_385C118DA46B59FA.mvfrm
Library\Bee\artifacts\mvdfrm\UnityEditor.DiagnosticsModule.dll_503AD14538657DC8.mvfrm
Library\Bee\artifacts\mvdfrm\UnityEditor.dll_B2851E267A38E16E.mvfrm
Library\Bee\artifacts\mvdfrm\UnityEditor.GraphViewModule.dll_2F1BF3BE0916B89F.mvfrm
Library\Bee\artifacts\mvdfrm\UnityEditor.PackageManagerUIModule.dll_93C3D9C132CC8D13.mvfrm
Library\Bee\artifacts\mvdfrm\UnityEditor.QuickSearchModule.dll_DB4A5252913C7A21.mvfrm
Library\Bee\artifacts\mvdfrm\UnityEditor.SceneTemplateModule.dll_3A789911C7C9B6C2.mvfrm
Library\Bee\artifacts\mvdfrm\UnityEditor.TextCoreFontEngineModule.dll_3FF51B3AC081DE15.mvfrm
Library\Bee\artifacts\mvdfrm\UnityEditor.TextCoreTextEngineModule.dll_87DD51AC50059733.mvfrm
Library\Bee\artifacts\mvdfrm\UnityEditor.UIBuilderModule.dll_83A4A0DA7BCF31D3.mvfrm
Library\Bee\artifacts\mvdfrm\UnityEditor.UIElementsModule.dll_55DC2D5107325053.mvfrm
Library\Bee\artifacts\mvdfrm\UnityEditor.UIElementsSamplesModule.dll_D40454D1FF8DD74A.mvfrm
Library\Bee\artifacts\mvdfrm\UnityEditor.UIServiceModule.dll_BC96B23D650681ED.mvfrm
Library\Bee\artifacts\mvdfrm\UnityEditor.UnityConnectModule.dll_C5488DF0EB96C8AD.mvfrm
Library\Bee\artifacts\mvdfrm\UnityEngine.AccessibilityModule.dll_6D1E04A8C83FDE5F.mvfrm
Library\Bee\artifacts\mvdfrm\UnityEngine.AIModule.dll_F71E91B6946403EB.mvfrm
Library\Bee\artifacts\mvdfrm\UnityEngine.AndroidJNIModule.dll_D42516245051BF29.mvfrm
Library\Bee\artifacts\mvdfrm\UnityEngine.AnimationModule.dll_FDA16FE6E3738D45.mvfrm
Library\Bee\artifacts\mvdfrm\UnityEngine.ARModule.dll_B09156B9F18162B4.mvfrm
Library\Bee\artifacts\mvdfrm\UnityEngine.AssetBundleModule.dll_1F338543F3A32F13.mvfrm
Library\Bee\artifacts\mvdfrm\UnityEngine.AudioModule.dll_E5513631C7F494F7.mvfrm
Library\Bee\artifacts\mvdfrm\UnityEngine.ClothModule.dll_4C39932CA21173DB.mvfrm
Library\Bee\artifacts\mvdfrm\UnityEngine.ClusterInputModule.dll_44E503069D1E9B73.mvfrm
Library\Bee\artifacts\mvdfrm\UnityEngine.ClusterRendererModule.dll_3E08D3FF1426677E.mvfrm
Library\Bee\artifacts\mvdfrm\UnityEngine.CoreModule.dll_C2A23F23A00749A2.mvfrm
Library\Bee\artifacts\mvdfrm\UnityEngine.CrashReportingModule.dll_63264790F0DB367A.mvfrm
Library\Bee\artifacts\mvdfrm\UnityEngine.DirectorModule.dll_BAD8415625D9F03F.mvfrm
Library\Bee\artifacts\mvdfrm\UnityEngine.dll_E52964FED8AC6E53.mvfrm
Library\Bee\artifacts\mvdfrm\UnityEngine.DSPGraphModule.dll_C029A2BF983AC160.mvfrm
Library\Bee\artifacts\mvdfrm\UnityEngine.GameCenterModule.dll_FE72603F1692B01A.mvfrm
Library\Bee\artifacts\mvdfrm\UnityEngine.GIModule.dll_8F5ADAC43012EC05.mvfrm
Library\Bee\artifacts\mvdfrm\UnityEngine.GridModule.dll_A0135B11B85BDF99.mvfrm
Library\Bee\artifacts\mvdfrm\UnityEngine.HotReloadModule.dll_7EEA2DECBEA6A8C7.mvfrm
Library\Bee\artifacts\mvdfrm\UnityEngine.ImageConversionModule.dll_A9FAD1AF964B1F72.mvfrm
Library\Bee\artifacts\mvdfrm\UnityEngine.IMGUIModule.dll_1DB0D5988E2628D8.mvfrm
Library\Bee\artifacts\mvdfrm\UnityEngine.InputLegacyModule.dll_B078A0628B94E504.mvfrm
Library\Bee\artifacts\mvdfrm\UnityEngine.InputModule.dll_4BC6FDE23E2CB99B.mvfrm
Library\Bee\artifacts\mvdfrm\UnityEngine.JSONSerializeModule.dll_CD358DE4C77B3EE9.mvfrm
Library\Bee\artifacts\mvdfrm\UnityEngine.LocalizationModule.dll_8331CD59349A8E6C.mvfrm
Library\Bee\artifacts\mvdfrm\UnityEngine.ParticleSystemModule.dll_B63890DD5EECC208.mvfrm
Library\Bee\artifacts\mvdfrm\UnityEngine.PerformanceReportingModule.dll_D9BCB85263ED0061.mvfrm
Library\Bee\artifacts\mvdfrm\UnityEngine.Physics2DModule.dll_4A475FD7847084DA.mvfrm
Library\Bee\artifacts\mvdfrm\UnityEngine.PhysicsModule.dll_54E963664E0B94A8.mvfrm
Library\Bee\artifacts\mvdfrm\UnityEngine.ProfilerModule.dll_ED1E7A8CBF33774C.mvfrm
Library\Bee\artifacts\mvdfrm\UnityEngine.RuntimeInitializeOnLoadManagerInitializerModule.dll_17C3A5CA77EEA9A3.mvfrm
Library\Bee\artifacts\mvdfrm\UnityEngine.ScreenCaptureModule.dll_E71D3B69DBE76B4B.mvfrm
Library\Bee\artifacts\mvdfrm\UnityEngine.SharedInternalsModule.dll_2E0C10850D791AC2.mvfrm
Library\Bee\artifacts\mvdfrm\UnityEngine.SpriteMaskModule.dll_E79ED2CF38024594.mvfrm
Library\Bee\artifacts\mvdfrm\UnityEngine.SpriteShapeModule.dll_3894B29EA945671D.mvfrm
Library\Bee\artifacts\mvdfrm\UnityEngine.StreamingModule.dll_B2365D3732FB4483.mvfrm
Library\Bee\artifacts\mvdfrm\UnityEngine.SubstanceModule.dll_8EE171807E4E4291.mvfrm
Library\Bee\artifacts\mvdfrm\UnityEngine.SubsystemsModule.dll_524C3931064A2DA7.mvfrm
Library\Bee\artifacts\mvdfrm\UnityEngine.TerrainModule.dll_6F2FDED523C9DD96.mvfrm
Library\Bee\artifacts\mvdfrm\UnityEngine.TerrainPhysicsModule.dll_B6B339B0782FBC95.mvfrm
Library\Bee\artifacts\mvdfrm\UnityEngine.TextCoreFontEngineModule.dll_BE54968DD37F9CE0.mvfrm
Library\Bee\artifacts\mvdfrm\UnityEngine.TextCoreTextEngineModule.dll_063CCCFF630355FE.mvfrm
Library\Bee\artifacts\mvdfrm\UnityEngine.TextRenderingModule.dll_105CAD74931EEB40.mvfrm
Library\Bee\artifacts\mvdfrm\UnityEngine.TilemapModule.dll_0E2C46563B86BE9F.mvfrm
Library\Bee\artifacts\mvdfrm\UnityEngine.TLSModule.dll_122773AF95B47B7C.mvfrm
Library\Bee\artifacts\mvdfrm\UnityEngine.UIElementsModule.dll_568A9A990976699E.mvfrm
Library\Bee\artifacts\mvdfrm\UnityEngine.UIElementsNativeModule.dll_DE3D8E56A444FD35.mvfrm
Library\Bee\artifacts\mvdfrm\UnityEngine.UIModule.dll_F2922FE3F0AB0997.mvfrm
Library\Bee\artifacts\mvdfrm\UnityEngine.UmbraModule.dll_6025E24A551B406A.mvfrm
Library\Bee\artifacts\mvdfrm\UnityEngine.UNETModule.dll_5548870CED163F1B.mvfrm
Library\Bee\artifacts\mvdfrm\UnityEngine.UnityAnalyticsModule.dll_D5D801A70B141404.mvfrm
Library\Bee\artifacts\mvdfrm\UnityEngine.UnityConnectModule.dll_B2A811FFE61EC958.mvfrm
Library\Bee\artifacts\mvdfrm\UnityEngine.UnityCurlModule.dll_30BE111853877F32.mvfrm
Library\Bee\artifacts\mvdfrm\UnityEngine.UnityTestProtocolModule.dll_8FC70AC459892CA0.mvfrm
Library\Bee\artifacts\mvdfrm\UnityEngine.UnityWebRequestAssetBundleModule.dll_3BBFC71259CF99D5.mvfrm
Library\Bee\artifacts\mvdfrm\UnityEngine.UnityWebRequestAudioModule.dll_51B90C30EA57CAF9.mvfrm
Library\Bee\artifacts\mvdfrm\UnityEngine.UnityWebRequestModule.dll_BB99D959A13FB9F1.mvfrm
Library\Bee\artifacts\mvdfrm\UnityEngine.UnityWebRequestTextureModule.dll_7901968FB51F69EE.mvfrm
Library\Bee\artifacts\mvdfrm\UnityEngine.UnityWebRequestWWWModule.dll_D0FF125B52C3126A.mvfrm
Library\Bee\artifacts\mvdfrm\UnityEngine.VehiclesModule.dll_329B3AD5A003BFDA.mvfrm
Library\Bee\artifacts\mvdfrm\UnityEngine.VFXModule.dll_93060C1E6C21E4E9.mvfrm
Library\Bee\artifacts\mvdfrm\UnityEngine.VideoModule.dll_0A5ABA9C8A86B09C.mvfrm
Library\Bee\artifacts\mvdfrm\UnityEngine.VirtualTexturingModule.dll_02CA42C57CF37DC0.mvfrm
Library\Bee\artifacts\mvdfrm\UnityEngine.VRModule.dll_4564566992658F0F.mvfrm
Library\Bee\artifacts\mvdfrm\UnityEngine.WindModule.dll_38F11A4C313DC80B.mvfrm
Library\Bee\artifacts\mvdfrm\UnityEngine.XRModule.dll_7823196E1B9FDC6D.mvfrm
Library\Bee\artifacts\mvdfrm\Unity.Android.Gradle.dll_5AA5CBC8F48263DF.mvfrm
Library\Bee\artifacts\mvdfrm\Unity.Android.Types.dll_49EE5DBFE37892CD.mvfrm
Library\Bee\artifacts\mvdfrm\UnityEditor.Android.Extensions.dll_A375891FB0CBB17F.mvfrm
Library\Bee\artifacts\mvdfrm\UnityEditor.WindowsStandalone.Extensions.dll_C1966CF595EBB999.mvfrm
Library\Bee\artifacts\mvdfrm\Unity.Burst.Cecil.dll_582B10A5301871DB.mvfrm
Library\Bee\artifacts\mvdfrm\Unity.Burst.Cecil.Mdb.dll_C33E57B9DCF9D3D8.mvfrm
Library\Bee\artifacts\mvdfrm\Unity.Burst.Cecil.Pdb.dll_DA90D0295BAED55B.mvfrm
Library\Bee\artifacts\mvdfrm\Unity.Burst.Cecil.Rocks.dll_322BF361CCE05EDB.mvfrm
Library\Bee\artifacts\mvdfrm\Unity.Burst.Unsafe.dll_1903109932CFEF48.mvfrm
Library\Bee\artifacts\mvdfrm\Unity.Plastic.Antlr3.Runtime.dll_5B9B4C5D1D8FBD85.mvfrm
Library\Bee\artifacts\mvdfrm\Unity.Plastic.Newtonsoft.Json.dll_8FD01F25F26DC0E0.mvfrm
Library\Bee\artifacts\mvdfrm\Unity.VisualScripting.IonicZip.dll_258D1FD16355D33B.mvfrm
Library\Bee\artifacts\mvdfrm\Unity.VisualScripting.YamlDotNet.dll_8E5CEA4BF63AE4B1.mvfrm
Library\Bee\artifacts\mvdfrm\Unity.VisualScripting.TextureAssets.dll_257B139FB70842A9.mvfrm
Library\Bee\artifacts\mvdfrm\Unity.VisualScripting.Antlr3.Runtime.dll_3FCA112D2703F4D0.mvfrm