Library\Bee\artifacts\mvdfrm\Unity.Services.Core.ref.dll_8733AE466239FA82.mvfrm
Library\Bee\artifacts\mvdfrm\UnityEngine.UI.ref.dll_FAE6DBEA21006BE5.mvfrm
Library\Bee\artifacts\mvdfrm\UnityEngine.AccessibilityModule.dll_8E5E38ACA1C1436F.mvfrm
Library\Bee\artifacts\mvdfrm\UnityEngine.AIModule.dll_BAEE2E93EF2F91DB.mvfrm
Library\Bee\artifacts\mvdfrm\UnityEngine.AndroidJNIModule.dll_B8B745F6E4744519.mvfrm
Library\Bee\artifacts\mvdfrm\UnityEngine.AnimationModule.dll_A237B235C2BD2E55.mvfrm
Library\Bee\artifacts\mvdfrm\UnityEngine.ARModule.dll_7460F3974C4CF0A4.mvfrm
Library\Bee\artifacts\mvdfrm\UnityEngine.AssetBundleModule.dll_15FB87C38F729223.mvfrm
Library\Bee\artifacts\mvdfrm\UnityEngine.AudioModule.dll_9196A35796977207.mvfrm
Library\Bee\artifacts\mvdfrm\UnityEngine.ClothModule.dll_F87F005270B450EB.mvfrm
Library\Bee\artifacts\mvdfrm\UnityEngine.ClusterInputModule.dll_DD9EED8F1BD63F63.mvfrm
Library\Bee\artifacts\mvdfrm\UnityEngine.ClusterRendererModule.dll_4252AF34288E0E8E.mvfrm
Library\Bee\artifacts\mvdfrm\UnityEngine.CoreModule.dll_3B7870CF1058F592.mvfrm
Library\Bee\artifacts\mvdfrm\UnityEngine.CrashReportingModule.dll_E363812F6B17B86A.mvfrm
Library\Bee\artifacts\mvdfrm\UnityEngine.DirectorModule.dll_0AC95FA9FFDF182F.mvfrm
Library\Bee\artifacts\mvdfrm\UnityEngine.dll_FCFA4D874440FF63.mvfrm
Library\Bee\artifacts\mvdfrm\UnityEngine.DSPGraphModule.dll_101AC113723FE950.mvfrm
Library\Bee\artifacts\mvdfrm\UnityEngine.GameCenterModule.dll_E3049011AAB5360A.mvfrm
Library\Bee\artifacts\mvdfrm\UnityEngine.GIModule.dll_532A77A18ADE79F5.mvfrm
Library\Bee\artifacts\mvdfrm\UnityEngine.GridModule.dll_18E98CBD28AD8B89.mvfrm
Library\Bee\artifacts\mvdfrm\UnityEngine.HotReloadModule.dll_2380703B9DF049D7.mvfrm
Library\Bee\artifacts\mvdfrm\UnityEngine.ImageConversionModule.dll_AE44ACE4AAB2C682.mvfrm
Library\Bee\artifacts\mvdfrm\UnityEngine.IMGUIModule.dll_C9F642BE5CC905E8.mvfrm
Library\Bee\artifacts\mvdfrm\UnityEngine.InputLegacyModule.dll_A740A2E227644814.mvfrm
Library\Bee\artifacts\mvdfrm\UnityEngine.InputModule.dll_F80C6B080CCF96AB.mvfrm
Library\Bee\artifacts\mvdfrm\UnityEngine.JSONSerializeModule.dll_EE75C1E8A0FCA3F9.mvfrm
Library\Bee\artifacts\mvdfrm\UnityEngine.LocalizationModule.dll_1BEBB7E1B352325C.mvfrm
Library\Bee\artifacts\mvdfrm\UnityEngine.ParticleSystemModule.dll_3675CA7BD92943F8.mvfrm
Library\Bee\artifacts\mvdfrm\UnityEngine.PerformanceReportingModule.dll_2D7EC1A1EC069C51.mvfrm
Library\Bee\artifacts\mvdfrm\UnityEngine.Physics2DModule.dll_EEDDA22663BA25EA.mvfrm
Library\Bee\artifacts\mvdfrm\UnityEngine.PhysicsModule.dll_8F8F57D1A6F3B3B8.mvfrm
Library\Bee\artifacts\mvdfrm\UnityEngine.ProfilerModule.dll_3D0F98E099389F3C.mvfrm
Library\Bee\artifacts\mvdfrm\UnityEngine.RuntimeInitializeOnLoadManagerInitializerModule.dll_4E0048DED9D26AB3.mvfrm
Library\Bee\artifacts\mvdfrm\UnityEngine.ScreenCaptureModule.dll_085D6F6DB568D05B.mvfrm
Library\Bee\artifacts\mvdfrm\UnityEngine.SharedInternalsModule.dll_3255EBBA21E0C1D2.mvfrm
Library\Bee\artifacts\mvdfrm\UnityEngine.SpriteMaskModule.dll_CC3102A1CC24CB84.mvfrm
Library\Bee\artifacts\mvdfrm\UnityEngine.SpriteShapeModule.dll_2F5CB51E4514CA2D.mvfrm
Library\Bee\artifacts\mvdfrm\UnityEngine.StreamingModule.dll_56CC9F861244E593.mvfrm
Library\Bee\artifacts\mvdfrm\UnityEngine.SubstanceModule.dll_3377B3CF5D97E3A1.mvfrm
Library\Bee\artifacts\mvdfrm\UnityEngine.SubsystemsModule.dll_36DE69039A6CB397.mvfrm
Library\Bee\artifacts\mvdfrm\UnityEngine.TerrainModule.dll_A9D5D3407CB1FCA6.mvfrm
Library\Bee\artifacts\mvdfrm\UnityEngine.TerrainPhysicsModule.dll_36F0734EF26C3E85.mvfrm
Library\Bee\artifacts\mvdfrm\UnityEngine.TextCoreFontEngineModule.dll_08781ECC14751AD0.mvfrm
Library\Bee\artifacts\mvdfrm\UnityEngine.TextCoreTextEngineModule.dll_5060553DA3F8D3EE.mvfrm
Library\Bee\artifacts\mvdfrm\UnityEngine.TextRenderingModule.dll_319CE1786CA05050.mvfrm
Library\Bee\artifacts\mvdfrm\UnityEngine.TilemapModule.dll_48D23AC1946EDDAF.mvfrm
Library\Bee\artifacts\mvdfrm\UnityEngine.TLSModule.dll_E90B6C1D8D26568C.mvfrm
Library\Bee\artifacts\mvdfrm\UnityEngine.UIElementsModule.dll_3B1CCA6B9D98EF8E.mvfrm
Library\Bee\artifacts\mvdfrm\UnityEngine.UIElementsNativeModule.dll_D2E201614A6E1D25.mvfrm
Library\Bee\artifacts\mvdfrm\UnityEngine.UIModule.dll_B661CCC14B769787.mvfrm
Library\Bee\artifacts\mvdfrm\UnityEngine.UmbraModule.dll_0C6B4F7023BE1D7A.mvfrm
Library\Bee\artifacts\mvdfrm\UnityEngine.UNETModule.dll_CE1EB8B85D67EB0B.mvfrm
Library\Bee\artifacts\mvdfrm\UnityEngine.UnityAnalyticsModule.dll_56153B45855095F4.mvfrm
Library\Bee\artifacts\mvdfrm\UnityEngine.UnityConnectModule.dll_4B61FC8864D66D48.mvfrm
Library\Bee\artifacts\mvdfrm\UnityEngine.UnityCurlModule.dll_D554536732D12042.mvfrm
Library\Bee\artifacts\mvdfrm\UnityEngine.UnityTestProtocolModule.dll_2F3B4544731355B0.mvfrm
Library\Bee\artifacts\mvdfrm\UnityEngine.UnityWebRequestAssetBundleModule.dll_F66F0D5079140FC5.mvfrm
Library\Bee\artifacts\mvdfrm\UnityEngine.UnityWebRequestAudioModule.dll_A57B1580727166E9.mvfrm
Library\Bee\artifacts\mvdfrm\UnityEngine.UnityWebRequestModule.dll_BFE3B48EB5A76101.mvfrm
Library\Bee\artifacts\mvdfrm\UnityEngine.UnityWebRequestTextureModule.dll_8599F8AF4D2CE3DE.mvfrm
Library\Bee\artifacts\mvdfrm\UnityEngine.UnityWebRequestWWWModule.dll_1B229A9993B8905A.mvfrm
Library\Bee\artifacts\mvdfrm\UnityEngine.VehiclesModule.dll_828C59297A08E7CA.mvfrm
Library\Bee\artifacts\mvdfrm\UnityEngine.VFXModule.dll_69EA048C6393BFF9.mvfrm
Library\Bee\artifacts\mvdfrm\UnityEngine.VideoModule.dll_B6A027C259298DAC.mvfrm
Library\Bee\artifacts\mvdfrm\UnityEngine.VirtualTexturingModule.dll_F76EB5D0231C9DB0.mvfrm
Library\Bee\artifacts\mvdfrm\UnityEngine.VRModule.dll_0933F346ED311CFF.mvfrm
Library\Bee\artifacts\mvdfrm\UnityEngine.WindModule.dll_B1C74BF7A18F73FB.mvfrm
Library\Bee\artifacts\mvdfrm\UnityEngine.XRModule.dll_3BF2B64B766B6A5D.mvfrm
Library\Bee\artifacts\mvdfrm\Unity.Burst.Cecil.dll_582B10A5301871DB.mvfrm
Library\Bee\artifacts\mvdfrm\Unity.Burst.Cecil.Mdb.dll_C33E57B9DCF9D3D8.mvfrm
Library\Bee\artifacts\mvdfrm\Unity.Burst.Cecil.Pdb.dll_DA90D0295BAED55B.mvfrm
Library\Bee\artifacts\mvdfrm\Unity.Burst.Cecil.Rocks.dll_322BF361CCE05EDB.mvfrm
Library\Bee\artifacts\mvdfrm\Unity.Burst.Unsafe.dll_1903109932CFEF48.mvfrm
Library\Bee\artifacts\mvdfrm\Unity.VisualScripting.Antlr3.Runtime.dll_3FCA112D2703F4D0.mvfrm